%!PS-Adobe-3.0 EPSF-3.0
%%BoundingBox: -30 -30 30 41
%%HiResBoundingBox: -29.3465 -29.3465 29.3465 40.685
%%Creator: PyX 0.15
%%CreationDate: Tue Mar 30 14:14:49 2021
%%EndComments
%%BeginProlog
%%EndProlog
0.566929 setlinewidth
gsave
1.000000 0.000000 0.000000 setrgbcolor
1 setlinecap
newpath
-28.3465 28.3465 moveto
28.3465 28.3465 lineto
0 -28.3465 lineto
closepath
gsave
1.000000 1.000000 1.000000 setrgbcolor
fill
grestore
gsave
1 setlinejoin
0.000000 0.000000 0.000000 setrgbcolor
stroke
grestore
grestore
gsave
1 setlinecap
0.800000 0.900000 0.500000 setrgbcolor
newpath
17.0079 39.685 moveto
0 -28.3465 lineto
stroke
grestore
gsave
1 setlinecap
0.800000 0.900000 0.500000 setrgbcolor
newpath
17.0079 39.685 moveto
14.5706 37.1644 lineto
stroke
grestore
gsave
1 setlinecap
0.800000 0.900000 0.500000 setrgbcolor
newpath
17.0079 39.685 moveto
17.9722 36.314 lineto
stroke
grestore
gsave
1.000000 0.300000 0.300000 setrgbcolor
newpath
15.5906 28.3465 moveto
14.1732 28.3465 1.41732 0.1 359.9 arc
closepath
fill
grestore
gsave
1.000000 0.300000 0.300000 setrgbcolor
newpath
15.5906 28.3465 moveto
14.1732 28.3465 1.41732 0.1 359.9 arc
closepath
stroke
grestore
showpage
%%Trailer
%%EOF
