<?xml version="1.0" encoding="utf-8"?>
<svg xmlns="http://www.w3.org/2000/svg" fill="none" version="1.1" viewBox="-47.8431 -34.748 85.7104 65.2065" x="-47.8431pt" y="-34.748pt" width="85.7104pt" height="65.2065pt" stroke-width="0.566929" stroke-miterlimit="10.000000">
 <path d="M0.566929 -0L0.566928 -0.000989477A0.566929 0.566929 0 0 0 -0.566929 -3.21196e-16A0.566929 0.566929 0 0 0 0.566928 0.000989477Z" fill="#000"/>
 <path d="M0.566929 -0L0.566928 -0.000989477A0.566929 0.566929 0 0 0 -0.566929 -3.21196e-16A0.566929 0.566929 0 0 0 0.566928 0.000989477Z" stroke="#000"/>
 <path d="M28.9134 -0L28.9134 -0.000989477A0.566929 0.566929 0 0 0 27.7795 -3.21196e-16A0.566929 0.566929 0 0 0 28.9134 0.000989477Z" fill="#000"/>
 <path d="M28.9134 -0L28.9134 -0.000989477A0.566929 0.566929 0 0 0 27.7795 -3.21196e-16A0.566929 0.566929 0 0 0 28.9134 0.000989477Z" stroke="#000"/>
 <path d="M14.7402 -24.5488L14.7402 -24.5497A0.566929 0.566929 0 0 0 13.6063 -24.5488A0.566929 0.566929 0 0 0 14.7402 -24.5478Z" fill="#000"/>
 <path d="M14.7402 -24.5488L14.7402 -24.5497A0.566929 0.566929 0 0 0 13.6063 -24.5488A0.566929 0.566929 0 0 0 14.7402 -24.5478Z" stroke="#000"/>
 <path d="M-13.6063 -24.5488L-13.6063 -24.5497A0.566929 0.566929 0 0 0 -14.7402 -24.5488A0.566929 0.566929 0 0 0 -13.6063 -24.5478Z" fill="#000"/>
 <path d="M-13.6063 -24.5488L-13.6063 -24.5497A0.566929 0.566929 0 0 0 -14.7402 -24.5488A0.566929 0.566929 0 0 0 -13.6063 -24.5478Z" stroke="#000"/>
 <path d="M-27.7795 -3.47144e-15L-27.7795 -0.000989477A0.566929 0.566929 0 0 0 -28.9134 -3.79264e-15A0.566929 0.566929 0 0 0 -27.7795 0.000989477Z" fill="#000"/>
 <path d="M-27.7795 -3.47144e-15L-27.7795 -0.000989477A0.566929 0.566929 0 0 0 -28.9134 -3.79264e-15A0.566929 0.566929 0 0 0 -27.7795 0.000989477Z" stroke="#000"/>
 <path d="M-13.6063 24.5488L-13.6063 24.5478A0.566929 0.566929 0 0 0 -14.7402 24.5488A0.566929 0.566929 0 0 0 -13.6063 24.5497Z" fill="#000"/>
 <path d="M-13.6063 24.5488L-13.6063 24.5478A0.566929 0.566929 0 0 0 -14.7402 24.5488A0.566929 0.566929 0 0 0 -13.6063 24.5497Z" stroke="#000"/>
 <path d="M14.7402 24.5488L14.7402 24.5478A0.566929 0.566929 0 0 0 13.6063 24.5488A0.566929 0.566929 0 0 0 14.7402 24.5497Z" fill="#000"/>
 <path d="M14.7402 24.5488L14.7402 24.5478A0.566929 0.566929 0 0 0 13.6063 24.5488A0.566929 0.566929 0 0 0 14.7402 24.5497Z" stroke="#000"/>
 <path d="M28.9134 6.94288e-15L28.9134 -0.000989477A0.566929 0.566929 0 0 0 27.7795 6.62168e-15A0.566929 0.566929 0 0 0 28.9134 0.000989477Z" fill="#000"/>
 <path d="M28.9134 6.94288e-15L28.9134 -0.000989477A0.566929 0.566929 0 0 0 27.7795 6.62168e-15A0.566929 0.566929 0 0 0 28.9134 0.000989477Z" stroke="#000"/>
 <g stroke-linecap="round">
  <path d="M0 -0L0 -0L28.3465 -0Z" stroke-linejoin="round" stroke="#000" fill="#e5e5ff"/>
 </g>
 <g stroke-linecap="round">
  <path d="M0 -0L28.3465 -0L14.1732 -24.5488Z" stroke-linejoin="round" stroke="#000" fill="#e5e5ff"/>
 </g>
 <g stroke-linecap="round">
  <path d="M0 -0L14.1732 -24.5488L-14.1732 -24.5488Z" stroke-linejoin="round" stroke="#000" fill="#e5e5ff"/>
 </g>
 <g stroke-linecap="round">
  <path d="M0 -0L-14.1732 -24.5488L-28.3465 -3.47144e-15Z" stroke-linejoin="round" stroke="#000" fill="#e5e5ff"/>
 </g>
 <g stroke-linecap="round">
  <path d="M0 -0L-28.3465 -3.47144e-15L-14.1732 24.5488Z" stroke-linejoin="round" stroke="#000" fill="#e5e5ff"/>
 </g>
 <g stroke-linecap="round">
  <path d="M0 -0L-14.1732 24.5488L14.1732 24.5488Z" stroke-linejoin="round" stroke="#000" fill="#e5e5ff"/>
 </g>
 <g stroke-linecap="round">
  <path d="M0 -0L14.1732 24.5488L28.3465 -0Z" stroke-linejoin="round" stroke="#000" fill="#e5e5ff"/>
 </g>
 <path d="M0.283465 -0L0.283464 -0.000494739A0.283465 0.283465 0 0 0 -0.283465 -1.60598e-16A0.283465 0.283465 0 0 0 0.283464 0.000494739Z" fill="#000"/>
 <path d="M0.283465 -0L0.283464 -0.000494739A0.283465 0.283465 0 0 0 -0.283465 -1.60598e-16A0.283465 0.283465 0 0 0 0.283464 0.000494739Z" stroke="#000"/>
 <path d="M14.4567 -0L14.4567 -0.000494739A0.283465 0.283465 0 0 0 13.8898 -1.60598e-16A0.283465 0.283465 0 0 0 14.4567 0.000494739Z" fill="#000"/>
 <path d="M14.4567 -0L14.4567 -0.000494739A0.283465 0.283465 0 0 0 13.8898 -1.60598e-16A0.283465 0.283465 0 0 0 14.4567 0.000494739Z" stroke="#000"/>
 <path d="M14.4567 -0L14.4567 -0.000494739A0.283465 0.283465 0 0 0 13.8898 -1.60598e-16A0.283465 0.283465 0 0 0 14.4567 0.000494739Z" fill="#000"/>
 <path d="M14.4567 -0L14.4567 -0.000494739A0.283465 0.283465 0 0 0 13.8898 -1.60598e-16A0.283465 0.283465 0 0 0 14.4567 0.000494739Z" stroke="#000"/>
 <path d="M14.4567 -0L14.4567 -0.000494739A0.283465 0.283465 0 0 0 13.8898 -1.60598e-16A0.283465 0.283465 0 0 0 14.4567 0.000494739Z" fill="#000"/>
 <path d="M14.4567 -0L14.4567 -0.000494739A0.283465 0.283465 0 0 0 13.8898 -1.60598e-16A0.283465 0.283465 0 0 0 14.4567 0.000494739Z" stroke="#000"/>
 <path d="M21.5433 -12.2744L21.5433 -12.2749A0.283465 0.283465 0 0 0 20.9764 -12.2744A0.283465 0.283465 0 0 0 21.5433 -12.2739Z" fill="#000"/>
 <path d="M21.5433 -12.2744L21.5433 -12.2749A0.283465 0.283465 0 0 0 20.9764 -12.2744A0.283465 0.283465 0 0 0 21.5433 -12.2739Z" stroke="#000"/>
 <path d="M7.37008 -12.2744L7.37008 -12.2749A0.283465 0.283465 0 0 0 6.80315 -12.2744A0.283465 0.283465 0 0 0 7.37008 -12.2739Z" fill="#000"/>
 <path d="M7.37008 -12.2744L7.37008 -12.2749A0.283465 0.283465 0 0 0 6.80315 -12.2744A0.283465 0.283465 0 0 0 7.37008 -12.2739Z" stroke="#000"/>
 <path d="M7.37008 -12.2744L7.37008 -12.2749A0.283465 0.283465 0 0 0 6.80315 -12.2744A0.283465 0.283465 0 0 0 7.37008 -12.2739Z" fill="#000"/>
 <path d="M7.37008 -12.2744L7.37008 -12.2749A0.283465 0.283465 0 0 0 6.80315 -12.2744A0.283465 0.283465 0 0 0 7.37008 -12.2739Z" stroke="#000"/>
 <path d="M0.283465 -24.5488L0.283464 -24.5492A0.283465 0.283465 0 0 0 -0.283465 -24.5488A0.283465 0.283465 0 0 0 0.283464 -24.5483Z" fill="#000"/>
 <path d="M0.283465 -24.5488L0.283464 -24.5492A0.283465 0.283465 0 0 0 -0.283465 -24.5488A0.283465 0.283465 0 0 0 0.283464 -24.5483Z" stroke="#000"/>
 <path d="M-6.80315 -12.2744L-6.80315 -12.2749A0.283465 0.283465 0 0 0 -7.37008 -12.2744A0.283465 0.283465 0 0 0 -6.80315 -12.2739Z" fill="#000"/>
 <path d="M-6.80315 -12.2744L-6.80315 -12.2749A0.283465 0.283465 0 0 0 -7.37008 -12.2744A0.283465 0.283465 0 0 0 -6.80315 -12.2739Z" stroke="#000"/>
 <path d="M-6.80315 -12.2744L-6.80315 -12.2749A0.283465 0.283465 0 0 0 -7.37008 -12.2744A0.283465 0.283465 0 0 0 -6.80315 -12.2739Z" fill="#000"/>
 <path d="M-6.80315 -12.2744L-6.80315 -12.2749A0.283465 0.283465 0 0 0 -7.37008 -12.2744A0.283465 0.283465 0 0 0 -6.80315 -12.2739Z" stroke="#000"/>
 <path d="M-20.9764 -12.2744L-20.9764 -12.2749A0.283465 0.283465 0 0 0 -21.5433 -12.2744A0.283465 0.283465 0 0 0 -20.9764 -12.2739Z" fill="#000"/>
 <path d="M-20.9764 -12.2744L-20.9764 -12.2749A0.283465 0.283465 0 0 0 -21.5433 -12.2744A0.283465 0.283465 0 0 0 -20.9764 -12.2739Z" stroke="#000"/>
 <path d="M-13.8898 -1.73572e-15L-13.8898 -0.000494739A0.283465 0.283465 0 0 0 -14.4567 -1.89632e-15A0.283465 0.283465 0 0 0 -13.8898 0.000494739Z" fill="#000"/>
 <path d="M-13.8898 -1.73572e-15L-13.8898 -0.000494739A0.283465 0.283465 0 0 0 -14.4567 -1.89632e-15A0.283465 0.283465 0 0 0 -13.8898 0.000494739Z" stroke="#000"/>
 <path d="M-13.8898 -1.73572e-15L-13.8898 -0.000494739A0.283465 0.283465 0 0 0 -14.4567 -1.89632e-15A0.283465 0.283465 0 0 0 -13.8898 0.000494739Z" fill="#000"/>
 <path d="M-13.8898 -1.73572e-15L-13.8898 -0.000494739A0.283465 0.283465 0 0 0 -14.4567 -1.89632e-15A0.283465 0.283465 0 0 0 -13.8898 0.000494739Z" stroke="#000"/>
 <path d="M-20.9764 12.2744L-20.9764 12.2739A0.283465 0.283465 0 0 0 -21.5433 12.2744A0.283465 0.283465 0 0 0 -20.9764 12.2749Z" fill="#000"/>
 <path d="M-20.9764 12.2744L-20.9764 12.2739A0.283465 0.283465 0 0 0 -21.5433 12.2744A0.283465 0.283465 0 0 0 -20.9764 12.2749Z" stroke="#000"/>
 <path d="M-6.80315 12.2744L-6.80315 12.2739A0.283465 0.283465 0 0 0 -7.37008 12.2744A0.283465 0.283465 0 0 0 -6.80315 12.2749Z" fill="#000"/>
 <path d="M-6.80315 12.2744L-6.80315 12.2739A0.283465 0.283465 0 0 0 -7.37008 12.2744A0.283465 0.283465 0 0 0 -6.80315 12.2749Z" stroke="#000"/>
 <path d="M-6.80315 12.2744L-6.80315 12.2739A0.283465 0.283465 0 0 0 -7.37008 12.2744A0.283465 0.283465 0 0 0 -6.80315 12.2749Z" fill="#000"/>
 <path d="M-6.80315 12.2744L-6.80315 12.2739A0.283465 0.283465 0 0 0 -7.37008 12.2744A0.283465 0.283465 0 0 0 -6.80315 12.2749Z" stroke="#000"/>
 <path d="M0.283465 24.5488L0.283464 24.5483A0.283465 0.283465 0 0 0 -0.283465 24.5488A0.283465 0.283465 0 0 0 0.283464 24.5492Z" fill="#000"/>
 <path d="M0.283465 24.5488L0.283464 24.5483A0.283465 0.283465 0 0 0 -0.283465 24.5488A0.283465 0.283465 0 0 0 0.283464 24.5492Z" stroke="#000"/>
 <path d="M7.37008 12.2744L7.37008 12.2739A0.283465 0.283465 0 0 0 6.80315 12.2744A0.283465 0.283465 0 0 0 7.37008 12.2749Z" fill="#000"/>
 <path d="M7.37008 12.2744L7.37008 12.2739A0.283465 0.283465 0 0 0 6.80315 12.2744A0.283465 0.283465 0 0 0 7.37008 12.2749Z" stroke="#000"/>
 <path d="M7.37008 12.2744L7.37008 12.2739A0.283465 0.283465 0 0 0 6.80315 12.2744A0.283465 0.283465 0 0 0 7.37008 12.2749Z" fill="#000"/>
 <path d="M7.37008 12.2744L7.37008 12.2739A0.283465 0.283465 0 0 0 6.80315 12.2744A0.283465 0.283465 0 0 0 7.37008 12.2749Z" stroke="#000"/>
 <path d="M21.5433 12.2744L21.5433 12.2739A0.283465 0.283465 0 0 0 20.9764 12.2744A0.283465 0.283465 0 0 0 21.5433 12.2749Z" fill="#000"/>
 <path d="M21.5433 12.2744L21.5433 12.2739A0.283465 0.283465 0 0 0 20.9764 12.2744A0.283465 0.283465 0 0 0 21.5433 12.2749Z" stroke="#000"/>
 <path d="M14.4567 -0L14.4567 -0.000494739A0.283465 0.283465 0 0 0 13.8898 -1.60598e-16A0.283465 0.283465 0 0 0 14.4567 0.000494739Z" fill="#000"/>
 <path d="M14.4567 -0L14.4567 -0.000494739A0.283465 0.283465 0 0 0 13.8898 -1.60598e-16A0.283465 0.283465 0 0 0 14.4567 0.000494739Z" stroke="#000"/>
 <g stroke-width="0.283465" stroke-linecap="round" stroke-dasharray="1.000000" stroke-dashoffset="0.000000">
  <path d="M0 -0L14.1732 -0" stroke="#000"/>
 </g>
 <g stroke-width="0.283465" stroke-linecap="round" stroke-dasharray="1.000000" stroke-dashoffset="0.000000">
  <path d="M14.1732 -0L14.1732 -0" stroke="#000"/>
 </g>
 <g stroke-width="0.283465" stroke-linecap="round" stroke-dasharray="1.000000" stroke-dashoffset="0.000000">
  <path d="M14.1732 -0L0 -0" stroke="#000"/>
 </g>
 <g stroke-width="0.283465" stroke-linecap="round" stroke-dasharray="1.000000" stroke-dashoffset="0.000000">
  <path d="M14.1732 -0L21.2598 -12.2744" stroke="#000"/>
 </g>
 <g stroke-width="0.283465" stroke-linecap="round" stroke-dasharray="1.000000" stroke-dashoffset="0.000000">
  <path d="M21.2598 -12.2744L7.08661 -12.2744" stroke="#000"/>
 </g>
 <g stroke-width="0.283465" stroke-linecap="round" stroke-dasharray="1.000000" stroke-dashoffset="0.000000">
  <path d="M7.08661 -12.2744L14.1732 -0" stroke="#000"/>
 </g>
 <g stroke-width="0.283465" stroke-linecap="round" stroke-dasharray="1.000000" stroke-dashoffset="0.000000">
  <path d="M7.08661 -12.2744L4.72063e-15 -24.5488" stroke="#000"/>
 </g>
 <g stroke-width="0.283465" stroke-linecap="round" stroke-dasharray="1.000000" stroke-dashoffset="0.000000">
  <path d="M4.72063e-15 -24.5488L-7.08661 -12.2744" stroke="#000"/>
 </g>
 <g stroke-width="0.283465" stroke-linecap="round" stroke-dasharray="1.000000" stroke-dashoffset="0.000000">
  <path d="M-7.08661 -12.2744L7.08661 -12.2744" stroke="#000"/>
 </g>
 <g stroke-width="0.283465" stroke-linecap="round" stroke-dasharray="1.000000" stroke-dashoffset="0.000000">
  <path d="M-7.08661 -12.2744L-21.2598 -12.2744" stroke="#000"/>
 </g>
 <g stroke-width="0.283465" stroke-linecap="round" stroke-dasharray="1.000000" stroke-dashoffset="0.000000">
  <path d="M-21.2598 -12.2744L-14.1732 -1.73572e-15" stroke="#000"/>
 </g>
 <g stroke-width="0.283465" stroke-linecap="round" stroke-dasharray="1.000000" stroke-dashoffset="0.000000">
  <path d="M-14.1732 -1.73572e-15L-7.08661 -12.2744" stroke="#000"/>
 </g>
 <g stroke-width="0.283465" stroke-linecap="round" stroke-dasharray="1.000000" stroke-dashoffset="0.000000">
  <path d="M-14.1732 -1.73572e-15L-21.2598 12.2744" stroke="#000"/>
 </g>
 <g stroke-width="0.283465" stroke-linecap="round" stroke-dasharray="1.000000" stroke-dashoffset="0.000000">
  <path d="M-21.2598 12.2744L-7.08661 12.2744" stroke="#000"/>
 </g>
 <g stroke-width="0.283465" stroke-linecap="round" stroke-dasharray="1.000000" stroke-dashoffset="0.000000">
  <path d="M-7.08661 12.2744L-14.1732 -1.73572e-15" stroke="#000"/>
 </g>
 <g stroke-width="0.283465" stroke-linecap="round" stroke-dasharray="1.000000" stroke-dashoffset="0.000000">
  <path d="M-7.08661 12.2744L-4.72063e-15 24.5488" stroke="#000"/>
 </g>
 <g stroke-width="0.283465" stroke-linecap="round" stroke-dasharray="1.000000" stroke-dashoffset="0.000000">
  <path d="M-4.72063e-15 24.5488L7.08661 12.2744" stroke="#000"/>
 </g>
 <g stroke-width="0.283465" stroke-linecap="round" stroke-dasharray="1.000000" stroke-dashoffset="0.000000">
  <path d="M7.08661 12.2744L-7.08661 12.2744" stroke="#000"/>
 </g>
 <g stroke-width="0.283465" stroke-linecap="round" stroke-dasharray="1.000000" stroke-dashoffset="0.000000">
  <path d="M7.08661 12.2744L21.2598 12.2744" stroke="#000"/>
 </g>
 <g stroke-width="0.283465" stroke-linecap="round" stroke-dasharray="1.000000" stroke-dashoffset="0.000000">
  <path d="M21.2598 12.2744L14.1732 -0" stroke="#000"/>
 </g>
 <g stroke-width="0.283465" stroke-linecap="round" stroke-dasharray="1.000000" stroke-dashoffset="0.000000">
  <path d="M14.1732 -0L7.08661 12.2744" stroke="#000"/>
 </g>
 <path d="M0.850394 -0L0.850392 -0.00148422A0.850394 0.850394 0 0 0 -0.850394 -4.81794e-16A0.850394 0.850394 0 0 0 0.850392 0.00148422Z" fill="#0cf"/>
 <path d="M0.850394 -0L0.850392 -0.00148422A0.850394 0.850394 0 0 0 -0.850394 -4.81794e-16A0.850394 0.850394 0 0 0 0.850392 0.00148422Z" stroke="#000"/>
 <g transform="matrix(1.000000,0.000000,0.000000,1.000000,34.015748,-0.000000)">
  <path d="M-2.56268 -0M0.635328 -0.557908C0.744917 -0.14944 1.09361 0.109589 1.522 0.109589C1.8707 0.109589 2.09984 -0.119552 2.25924 -0.438356C2.4286 -0.797011 2.55812 -1.40473 2.55812 -1.42466C2.55812 -1.52428 2.46845 -1.52428 2.43857 -1.52428C2.33894 -1.52428 2.32898 -1.48443 2.29909 -1.34496C2.15961 -0.787049 1.97032 -0.109589 1.55189 -0.109589C1.34268 -0.109589 1.24305 -0.239103 1.24305 -0.56787C1.24305 -0.787049 1.3626 -1.25529 1.4423 -1.60399L1.72126 -2.67995C1.75114 -2.82939 1.85077 -3.20797 1.89062 -3.35741C1.94043 -3.58655 2.04006 -3.96513 2.04006 -4.02491C2.04006 -4.20423 1.90058 -4.2939 1.75114 -4.2939C1.70133 -4.2939 1.4423 -4.28394 1.3626 -3.94521C1.17331 -3.21793 0.734954 -1.47447 0.615403 -0.946451C0.60544 -0.9066 0.206935 -0.109589 -0.520338 -0.109589C-1.0384 -0.109589 -1.13802 -0.557908 -1.13802 -0.926526C-1.13802 -1.48443 -0.859068 -2.27148 -0.600039 -2.9589C-0.480488 -3.25778 -0.430674 -3.39726 -0.430674 -3.58655C-0.430674 -4.03487 -0.749479 -4.40349 -1.24761 -4.40349C-2.19406 -4.40349 -2.56268 -2.9589 -2.56268 -2.86924C-2.56268 -2.76961 -2.46305 -2.76961 -2.44313 -2.76961C-2.3435 -2.76961 -2.33354 -2.78954 -2.28373 -2.94894C-2.03466 -3.81569 -1.65608 -4.18431 -1.2775 -4.18431C-1.18784 -4.18431 -1.02843 -4.17435 -1.02843 -3.85554C-1.02843 -3.61644 -1.13802 -3.32752 -1.1978 -3.17808C-1.56642 -2.19178 -1.77563 -1.5741 -1.77563 -1.08593C-1.77563 -0.139477 -1.08821 0.109589 -0.550226 0.109589C0.107308 0.109589 0.465963 -0.33873 0.635328 -0.557908ZM0.635328 -0.557908" fill="black"/>
 </g>
 <g transform="matrix(1.000000,0.000000,0.000000,1.000000,17.007874,-29.458502)">
  <path d="M-2.56268 -0M0.635328 -0.557908C0.744917 -0.14944 1.09361 0.109589 1.522 0.109589C1.8707 0.109589 2.09984 -0.119552 2.25924 -0.438356C2.4286 -0.797011 2.55812 -1.40473 2.55812 -1.42466C2.55812 -1.52428 2.46845 -1.52428 2.43857 -1.52428C2.33894 -1.52428 2.32898 -1.48443 2.29909 -1.34496C2.15961 -0.787049 1.97032 -0.109589 1.55189 -0.109589C1.34268 -0.109589 1.24305 -0.239103 1.24305 -0.56787C1.24305 -0.787049 1.3626 -1.25529 1.4423 -1.60399L1.72126 -2.67995C1.75114 -2.82939 1.85077 -3.20797 1.89062 -3.35741C1.94043 -3.58655 2.04006 -3.96513 2.04006 -4.02491C2.04006 -4.20423 1.90058 -4.2939 1.75114 -4.2939C1.70133 -4.2939 1.4423 -4.28394 1.3626 -3.94521C1.17331 -3.21793 0.734954 -1.47447 0.615403 -0.946451C0.60544 -0.9066 0.206935 -0.109589 -0.520338 -0.109589C-1.0384 -0.109589 -1.13802 -0.557908 -1.13802 -0.926526C-1.13802 -1.48443 -0.859068 -2.27148 -0.600039 -2.9589C-0.480488 -3.25778 -0.430674 -3.39726 -0.430674 -3.58655C-0.430674 -4.03487 -0.749479 -4.40349 -1.24761 -4.40349C-2.19406 -4.40349 -2.56268 -2.9589 -2.56268 -2.86924C-2.56268 -2.76961 -2.46305 -2.76961 -2.44313 -2.76961C-2.3435 -2.76961 -2.33354 -2.78954 -2.28373 -2.94894C-2.03466 -3.81569 -1.65608 -4.18431 -1.2775 -4.18431C-1.18784 -4.18431 -1.02843 -4.17435 -1.02843 -3.85554C-1.02843 -3.61644 -1.13802 -3.32752 -1.1978 -3.17808C-1.56642 -2.19178 -1.77563 -1.5741 -1.77563 -1.08593C-1.77563 -0.139477 -1.08821 0.109589 -0.550226 0.109589C0.107308 0.109589 0.465963 -0.33873 0.635328 -0.557908ZM0.635328 -0.557908" fill="black"/>
 </g>
 <g transform="matrix(1.000000,0.000000,0.000000,1.000000,-17.007874,-29.458502)">
  <path d="M-2.56268 -0M0.635328 -0.557908C0.744917 -0.14944 1.09361 0.109589 1.522 0.109589C1.8707 0.109589 2.09984 -0.119552 2.25924 -0.438356C2.4286 -0.797011 2.55812 -1.40473 2.55812 -1.42466C2.55812 -1.52428 2.46845 -1.52428 2.43857 -1.52428C2.33894 -1.52428 2.32898 -1.48443 2.29909 -1.34496C2.15961 -0.787049 1.97032 -0.109589 1.55189 -0.109589C1.34268 -0.109589 1.24305 -0.239103 1.24305 -0.56787C1.24305 -0.787049 1.3626 -1.25529 1.4423 -1.60399L1.72126 -2.67995C1.75114 -2.82939 1.85077 -3.20797 1.89062 -3.35741C1.94043 -3.58655 2.04006 -3.96513 2.04006 -4.02491C2.04006 -4.20423 1.90058 -4.2939 1.75114 -4.2939C1.70133 -4.2939 1.4423 -4.28394 1.3626 -3.94521C1.17331 -3.21793 0.734954 -1.47447 0.615403 -0.946451C0.60544 -0.9066 0.206935 -0.109589 -0.520338 -0.109589C-1.0384 -0.109589 -1.13802 -0.557908 -1.13802 -0.926526C-1.13802 -1.48443 -0.859068 -2.27148 -0.600039 -2.9589C-0.480488 -3.25778 -0.430674 -3.39726 -0.430674 -3.58655C-0.430674 -4.03487 -0.749479 -4.40349 -1.24761 -4.40349C-2.19406 -4.40349 -2.56268 -2.9589 -2.56268 -2.86924C-2.56268 -2.76961 -2.46305 -2.76961 -2.44313 -2.76961C-2.3435 -2.76961 -2.33354 -2.78954 -2.28373 -2.94894C-2.03466 -3.81569 -1.65608 -4.18431 -1.2775 -4.18431C-1.18784 -4.18431 -1.02843 -4.17435 -1.02843 -3.85554C-1.02843 -3.61644 -1.13802 -3.32752 -1.1978 -3.17808C-1.56642 -2.19178 -1.77563 -1.5741 -1.77563 -1.08593C-1.77563 -0.139477 -1.08821 0.109589 -0.550226 0.109589C0.107308 0.109589 0.465963 -0.33873 0.635328 -0.557908ZM0.635328 -0.557908" fill="black"/>
 </g>
 <g transform="matrix(1.000000,0.000000,0.000000,1.000000,-34.015748,-0.000000)">
  <path d="M-2.56268 -0M0.635328 -0.557908C0.744917 -0.14944 1.09361 0.109589 1.522 0.109589C1.8707 0.109589 2.09984 -0.119552 2.25924 -0.438356C2.4286 -0.797011 2.55812 -1.40473 2.55812 -1.42466C2.55812 -1.52428 2.46845 -1.52428 2.43857 -1.52428C2.33894 -1.52428 2.32898 -1.48443 2.29909 -1.34496C2.15961 -0.787049 1.97032 -0.109589 1.55189 -0.109589C1.34268 -0.109589 1.24305 -0.239103 1.24305 -0.56787C1.24305 -0.787049 1.3626 -1.25529 1.4423 -1.60399L1.72126 -2.67995C1.75114 -2.82939 1.85077 -3.20797 1.89062 -3.35741C1.94043 -3.58655 2.04006 -3.96513 2.04006 -4.02491C2.04006 -4.20423 1.90058 -4.2939 1.75114 -4.2939C1.70133 -4.2939 1.4423 -4.28394 1.3626 -3.94521C1.17331 -3.21793 0.734954 -1.47447 0.615403 -0.946451C0.60544 -0.9066 0.206935 -0.109589 -0.520338 -0.109589C-1.0384 -0.109589 -1.13802 -0.557908 -1.13802 -0.926526C-1.13802 -1.48443 -0.859068 -2.27148 -0.600039 -2.9589C-0.480488 -3.25778 -0.430674 -3.39726 -0.430674 -3.58655C-0.430674 -4.03487 -0.749479 -4.40349 -1.24761 -4.40349C-2.19406 -4.40349 -2.56268 -2.9589 -2.56268 -2.86924C-2.56268 -2.76961 -2.46305 -2.76961 -2.44313 -2.76961C-2.3435 -2.76961 -2.33354 -2.78954 -2.28373 -2.94894C-2.03466 -3.81569 -1.65608 -4.18431 -1.2775 -4.18431C-1.18784 -4.18431 -1.02843 -4.17435 -1.02843 -3.85554C-1.02843 -3.61644 -1.13802 -3.32752 -1.1978 -3.17808C-1.56642 -2.19178 -1.77563 -1.5741 -1.77563 -1.08593C-1.77563 -0.139477 -1.08821 0.109589 -0.550226 0.109589C0.107308 0.109589 0.465963 -0.33873 0.635328 -0.557908ZM0.635328 -0.557908" fill="black"/>
 </g>
 <g transform="matrix(1.000000,0.000000,0.000000,1.000000,-17.007874,29.458502)">
  <path d="M-2.56268 -0M0.635328 -0.557908C0.744917 -0.14944 1.09361 0.109589 1.522 0.109589C1.8707 0.109589 2.09984 -0.119552 2.25924 -0.438356C2.4286 -0.797011 2.55812 -1.40473 2.55812 -1.42466C2.55812 -1.52428 2.46845 -1.52428 2.43857 -1.52428C2.33894 -1.52428 2.32898 -1.48443 2.29909 -1.34496C2.15961 -0.787049 1.97032 -0.109589 1.55189 -0.109589C1.34268 -0.109589 1.24305 -0.239103 1.24305 -0.56787C1.24305 -0.787049 1.3626 -1.25529 1.4423 -1.60399L1.72126 -2.67995C1.75114 -2.82939 1.85077 -3.20797 1.89062 -3.35741C1.94043 -3.58655 2.04006 -3.96513 2.04006 -4.02491C2.04006 -4.20423 1.90058 -4.2939 1.75114 -4.2939C1.70133 -4.2939 1.4423 -4.28394 1.3626 -3.94521C1.17331 -3.21793 0.734954 -1.47447 0.615403 -0.946451C0.60544 -0.9066 0.206935 -0.109589 -0.520338 -0.109589C-1.0384 -0.109589 -1.13802 -0.557908 -1.13802 -0.926526C-1.13802 -1.48443 -0.859068 -2.27148 -0.600039 -2.9589C-0.480488 -3.25778 -0.430674 -3.39726 -0.430674 -3.58655C-0.430674 -4.03487 -0.749479 -4.40349 -1.24761 -4.40349C-2.19406 -4.40349 -2.56268 -2.9589 -2.56268 -2.86924C-2.56268 -2.76961 -2.46305 -2.76961 -2.44313 -2.76961C-2.3435 -2.76961 -2.33354 -2.78954 -2.28373 -2.94894C-2.03466 -3.81569 -1.65608 -4.18431 -1.2775 -4.18431C-1.18784 -4.18431 -1.02843 -4.17435 -1.02843 -3.85554C-1.02843 -3.61644 -1.13802 -3.32752 -1.1978 -3.17808C-1.56642 -2.19178 -1.77563 -1.5741 -1.77563 -1.08593C-1.77563 -0.139477 -1.08821 0.109589 -0.550226 0.109589C0.107308 0.109589 0.465963 -0.33873 0.635328 -0.557908ZM0.635328 -0.557908" fill="black"/>
 </g>
 <g transform="matrix(1.000000,0.000000,0.000000,1.000000,17.007874,29.458502)">
  <path d="M-2.56268 -0M0.635328 -0.557908C0.744917 -0.14944 1.09361 0.109589 1.522 0.109589C1.8707 0.109589 2.09984 -0.119552 2.25924 -0.438356C2.4286 -0.797011 2.55812 -1.40473 2.55812 -1.42466C2.55812 -1.52428 2.46845 -1.52428 2.43857 -1.52428C2.33894 -1.52428 2.32898 -1.48443 2.29909 -1.34496C2.15961 -0.787049 1.97032 -0.109589 1.55189 -0.109589C1.34268 -0.109589 1.24305 -0.239103 1.24305 -0.56787C1.24305 -0.787049 1.3626 -1.25529 1.4423 -1.60399L1.72126 -2.67995C1.75114 -2.82939 1.85077 -3.20797 1.89062 -3.35741C1.94043 -3.58655 2.04006 -3.96513 2.04006 -4.02491C2.04006 -4.20423 1.90058 -4.2939 1.75114 -4.2939C1.70133 -4.2939 1.4423 -4.28394 1.3626 -3.94521C1.17331 -3.21793 0.734954 -1.47447 0.615403 -0.946451C0.60544 -0.9066 0.206935 -0.109589 -0.520338 -0.109589C-1.0384 -0.109589 -1.13802 -0.557908 -1.13802 -0.926526C-1.13802 -1.48443 -0.859068 -2.27148 -0.600039 -2.9589C-0.480488 -3.25778 -0.430674 -3.39726 -0.430674 -3.58655C-0.430674 -4.03487 -0.749479 -4.40349 -1.24761 -4.40349C-2.19406 -4.40349 -2.56268 -2.9589 -2.56268 -2.86924C-2.56268 -2.76961 -2.46305 -2.76961 -2.44313 -2.76961C-2.3435 -2.76961 -2.33354 -2.78954 -2.28373 -2.94894C-2.03466 -3.81569 -1.65608 -4.18431 -1.2775 -4.18431C-1.18784 -4.18431 -1.02843 -4.17435 -1.02843 -3.85554C-1.02843 -3.61644 -1.13802 -3.32752 -1.1978 -3.17808C-1.56642 -2.19178 -1.77563 -1.5741 -1.77563 -1.08593C-1.77563 -0.139477 -1.08821 0.109589 -0.550226 0.109589C0.107308 0.109589 0.465963 -0.33873 0.635328 -0.557908ZM0.635328 -0.557908" fill="black"/>
 </g>
 <g transform="matrix(1.000000,0.000000,0.000000,1.000000,34.015748,0.000000)">
  <path d="M-2.56268 -0M0.635328 -0.557908C0.744917 -0.14944 1.09361 0.109589 1.522 0.109589C1.8707 0.109589 2.09984 -0.119552 2.25924 -0.438356C2.4286 -0.797011 2.55812 -1.40473 2.55812 -1.42466C2.55812 -1.52428 2.46845 -1.52428 2.43857 -1.52428C2.33894 -1.52428 2.32898 -1.48443 2.29909 -1.34496C2.15961 -0.787049 1.97032 -0.109589 1.55189 -0.109589C1.34268 -0.109589 1.24305 -0.239103 1.24305 -0.56787C1.24305 -0.787049 1.3626 -1.25529 1.4423 -1.60399L1.72126 -2.67995C1.75114 -2.82939 1.85077 -3.20797 1.89062 -3.35741C1.94043 -3.58655 2.04006 -3.96513 2.04006 -4.02491C2.04006 -4.20423 1.90058 -4.2939 1.75114 -4.2939C1.70133 -4.2939 1.4423 -4.28394 1.3626 -3.94521C1.17331 -3.21793 0.734954 -1.47447 0.615403 -0.946451C0.60544 -0.9066 0.206935 -0.109589 -0.520338 -0.109589C-1.0384 -0.109589 -1.13802 -0.557908 -1.13802 -0.926526C-1.13802 -1.48443 -0.859068 -2.27148 -0.600039 -2.9589C-0.480488 -3.25778 -0.430674 -3.39726 -0.430674 -3.58655C-0.430674 -4.03487 -0.749479 -4.40349 -1.24761 -4.40349C-2.19406 -4.40349 -2.56268 -2.9589 -2.56268 -2.86924C-2.56268 -2.76961 -2.46305 -2.76961 -2.44313 -2.76961C-2.3435 -2.76961 -2.33354 -2.78954 -2.28373 -2.94894C-2.03466 -3.81569 -1.65608 -4.18431 -1.2775 -4.18431C-1.18784 -4.18431 -1.02843 -4.17435 -1.02843 -3.85554C-1.02843 -3.61644 -1.13802 -3.32752 -1.1978 -3.17808C-1.56642 -2.19178 -1.77563 -1.5741 -1.77563 -1.08593C-1.77563 -0.139477 -1.08821 0.109589 -0.550226 0.109589C0.107308 0.109589 0.465963 -0.33873 0.635328 -0.557908ZM0.635328 -0.557908" fill="black"/>
 </g>
 <g transform="matrix(1.000000,0.000000,0.000000,1.000000,-36.850394,21.259843)">
  <path d="M-9.10599 -0M-7.06365 -6.37609C-7.06365 -6.61519 -7.06365 -6.63512 -7.29279 -6.63512C-7.91047 -5.99751 -8.78718 -5.99751 -9.10599 -5.99751L-9.10599 -5.68867C-8.90674 -5.68867 -8.31894 -5.68867 -7.80088 -5.9477L-7.80088 -0.787049C-7.80088 -0.428394 -7.83077 -0.308842 -8.72741 -0.308842L-9.04621 -0.308842L-9.04621 -0C-8.69752 -0.0298879 -7.83077 -0.0298879 -7.43227 -0.0298879C-7.03376 -0.0298879 -6.16701 -0.0298879 -5.81832 -0L-5.81832 -0.308842L-6.13712 -0.308842C-7.03376 -0.308842 -7.06365 -0.418431 -7.06365 -0.787049ZM-7.06365 -0.787049M-4.90175 -0M-2.26165 -1.86301L-2.26165 -2.44085L-4.90175 -2.44085L-4.90175 -1.86301ZM-4.90175 -1.86301" fill="black"/>
  <path d="M-1.40154 -0M-0.813741 -0.587796C-0.843629 -0.438356 -0.903405 -0.209215 -0.903405 -0.159402C-0.903405 0.0199253 -0.763928 0.109589 -0.614488 0.109589C-0.494937 0.109589 -0.315609 0.0298879 -0.245871 -0.169365C-0.235908 -0.18929 -0.116356 -0.657534 -0.0565804 -0.9066L0.162598 -1.80324C0.222373 -2.02242 0.282149 -2.24159 0.331963 -2.47073C0.371813 -2.6401 0.451514 -2.92902 0.461477 -2.96887C0.610916 -3.27771 1.13894 -4.18431 2.08539 -4.18431C2.53371 -4.18431 2.62337 -3.81569 2.62337 -3.48692C2.62337 -2.86924 2.1352 -1.59402 1.9758 -1.16563C1.88613 -0.936488 1.87617 -0.816936 1.87617 -0.707347C1.87617 -0.239103 2.22486 0.109589 2.69311 0.109589C3.6296 0.109589 3.99821 -1.34496 3.99821 -1.42466C3.99821 -1.52428 3.90855 -1.52428 3.87866 -1.52428C3.77904 -1.52428 3.77904 -1.4944 3.72922 -1.34496C3.52997 -0.667497 3.2012 -0.109589 2.71303 -0.109589C2.54367 -0.109589 2.47393 -0.209215 2.47393 -0.438356C2.47393 -0.687422 2.56359 -0.926526 2.65326 -1.1457C2.84255 -1.67372 3.26098 -2.76961 3.26098 -3.33748C3.26098 -4.00498 2.83259 -4.40349 2.11528 -4.40349C1.21864 -4.40349 0.730468 -3.76588 0.561103 -3.53674C0.51129 -4.09465 0.102822 -4.40349 -0.35546 -4.40349C-0.813741 -4.40349 -1.00303 -4.01494 -1.10266 -3.83562C-1.26206 -3.49689 -1.40154 -2.90909 -1.40154 -2.86924C-1.40154 -2.76961 -1.30191 -2.76961 -1.28199 -2.76961C-1.18236 -2.76961 -1.1724 -2.77958 -1.11262 -2.99875C-0.943255 -3.7061 -0.744003 -4.18431 -0.385348 -4.18431C-0.186095 -4.18431 -0.0765057 -4.05479 -0.0765057 -3.72603C-0.0765057 -3.51681 -0.106394 -3.40722 -0.235908 -2.88917ZM-0.235908 -2.88917M4.57605 -0M7.77405 -0.557908C7.88364 -0.14944 8.23234 0.109589 8.66073 0.109589C9.00942 0.109589 9.23856 -0.119552 9.39797 -0.438356C9.56733 -0.797011 9.69684 -1.40473 9.69684 -1.42466C9.69684 -1.52428 9.60718 -1.52428 9.57729 -1.52428C9.47767 -1.52428 9.4677 -1.48443 9.43782 -1.34496C9.29834 -0.787049 9.10905 -0.109589 8.69062 -0.109589C8.4814 -0.109589 8.38178 -0.239103 8.38178 -0.56787C8.38178 -0.787049 8.50133 -1.25529 8.58103 -1.60399L8.85998 -2.67995C8.88987 -2.82939 8.9895 -3.20797 9.02935 -3.35741C9.07916 -3.58655 9.17879 -3.96513 9.17879 -4.02491C9.17879 -4.20423 9.03931 -4.2939 8.88987 -4.2939C8.84006 -4.2939 8.58103 -4.28394 8.50133 -3.94521C8.31204 -3.21793 7.87368 -1.47447 7.75413 -0.946451C7.74417 -0.9066 7.34566 -0.109589 6.61839 -0.109589C6.10033 -0.109589 6.0007 -0.557908 6.0007 -0.926526C6.0007 -1.48443 6.27966 -2.27148 6.53869 -2.9589C6.65824 -3.25778 6.70805 -3.39726 6.70805 -3.58655C6.70805 -4.03487 6.38925 -4.40349 5.89112 -4.40349C4.94466 -4.40349 4.57605 -2.9589 4.57605 -2.86924C4.57605 -2.76961 4.67567 -2.76961 4.6956 -2.76961C4.79523 -2.76961 4.80519 -2.78954 4.855 -2.94894C5.10407 -3.81569 5.48265 -4.18431 5.86123 -4.18431C5.95089 -4.18431 6.11029 -4.17435 6.11029 -3.85554C6.11029 -3.61644 6.0007 -3.32752 5.94093 -3.17808C5.57231 -2.19178 5.3631 -1.5741 5.3631 -1.08593C5.3631 -0.139477 6.05052 0.109589 6.5885 0.109589C7.24603 0.109589 7.60469 -0.33873 7.77405 -0.557908ZM7.77405 -0.557908" fill="black"/>
 </g>
</svg>
