%!PS-Adobe-3.0 EPSF-3.0
%%BoundingBox: -19 -8 60 48
%%HiResBoundingBox: -18.2233 -7.43429 59.3505 47.5817
%%Creator: PyX 0.15
%%CreationDate: Tue Jan 12 20:28:17 2021
%%EndComments
%%BeginProlog
%%EndProlog
0.566929 setlinewidth
gsave
1 setlinecap
0.425197 setlinewidth
0.000000 0.800000 1.000000 setrgbcolor
newpath
0.905809 9.89333 moveto
-16.6563 23.4956 lineto
stroke
grestore
gsave
1 setlinecap
0.425197 setlinewidth
0.000000 0.800000 1.000000 setrgbcolor
newpath
0.905809 9.89333 moveto
26.4355 -4.32182 lineto
stroke
grestore
gsave
1 setlinecap
0.425197 setlinewidth
0.000000 0.800000 1.000000 setrgbcolor
newpath
0.905809 9.89333 moveto
15.1289 9.01217 lineto
stroke
grestore
gsave
1 setlinecap
0.425197 setlinewidth
0.000000 0.800000 1.000000 setrgbcolor
newpath
0.905809 9.89333 moveto
12.2124 -3.44065 lineto
stroke
grestore
gsave
1 setlinecap
0.425197 setlinewidth
0.000000 0.800000 1.000000 setrgbcolor
newpath
0.905809 9.89333 moveto
-6.41701 22.9209 lineto
stroke
grestore
gsave
1 setlinecap
0.425197 setlinewidth
0.000000 0.800000 1.000000 setrgbcolor
newpath
0.905809 9.89333 moveto
-9.33351 10.468 lineto
stroke
grestore
gsave
1 setlinecap
0.425197 setlinewidth
0.000000 0.800000 1.000000 setrgbcolor
newpath
15.1289 9.01217 moveto
29.8963 21.7487 lineto
stroke
grestore
gsave
1 setlinecap
0.425197 setlinewidth
0.000000 0.800000 1.000000 setrgbcolor
newpath
15.1289 9.01217 moveto
16.8593 22.0474 lineto
stroke
grestore
gsave
1 setlinecap
0.425197 setlinewidth
0.000000 0.800000 1.000000 setrgbcolor
newpath
15.1289 9.01217 moveto
28.1659 8.71343 lineto
stroke
grestore
gsave
1 setlinecap
0.425197 setlinewidth
0.000000 0.800000 1.000000 setrgbcolor
newpath
28.1659 8.71343 moveto
57.7836 -5.86736 lineto
stroke
grestore
gsave
1 setlinecap
0.425197 setlinewidth
0.000000 0.800000 1.000000 setrgbcolor
newpath
28.1659 8.71343 moveto
43.84 7.94066 lineto
stroke
grestore
gsave
1 setlinecap
0.425197 setlinewidth
0.000000 0.800000 1.000000 setrgbcolor
newpath
28.1659 8.71343 moveto
42.1096 -5.09459 lineto
stroke
grestore
gsave
1 setlinecap
0.425197 setlinewidth
0.000000 0.800000 1.000000 setrgbcolor
newpath
43.84 7.94066 moveto
53.4694 21.9514 lineto
stroke
grestore
gsave
1 setlinecap
0.425197 setlinewidth
0.000000 0.800000 1.000000 setrgbcolor
newpath
43.84 7.94066 moveto
41.6829 21.85 lineto
stroke
grestore
gsave
1 setlinecap
0.425197 setlinewidth
0.000000 0.800000 1.000000 setrgbcolor
newpath
43.84 7.94066 moveto
55.6265 8.04201 lineto
stroke
grestore
gsave
1 setlinecap
0.425197 setlinewidth
0.000000 0.800000 1.000000 setrgbcolor
newpath
41.6829 21.85 moveto
40.5675 32.6809 lineto
stroke
grestore
gsave
1 setlinecap
0.425197 setlinewidth
0.000000 0.800000 1.000000 setrgbcolor
newpath
41.6829 21.85 moveto
27.6656 43.4105 lineto
stroke
grestore
gsave
1 setlinecap
0.425197 setlinewidth
0.000000 0.800000 1.000000 setrgbcolor
newpath
41.6829 21.85 moveto
28.7809 32.5796 lineto
stroke
grestore
gsave
1 setlinecap
0.425197 setlinewidth
0.000000 0.800000 1.000000 setrgbcolor
newpath
28.7809 32.5796 moveto
18.0684 33.6263 lineto
stroke
grestore
gsave
1 setlinecap
0.425197 setlinewidth
0.000000 0.800000 1.000000 setrgbcolor
newpath
28.7809 32.5796 moveto
6.24044 45.504 lineto
stroke
grestore
gsave
1 setlinecap
0.425197 setlinewidth
0.000000 0.800000 1.000000 setrgbcolor
newpath
28.7809 32.5796 moveto
16.953 44.4572 lineto
stroke
grestore
gsave
1 setlinecap
0.425197 setlinewidth
0.000000 0.800000 1.000000 setrgbcolor
newpath
18.0684 33.6263 moveto
5.03138 33.9251 lineto
stroke
grestore
gsave
1 setlinecap
0.425197 setlinewidth
0.000000 0.800000 1.000000 setrgbcolor
newpath
18.0684 33.6263 moveto
3.82231 22.3461 lineto
stroke
grestore
gsave
1 setlinecap
0.425197 setlinewidth
0.000000 0.800000 1.000000 setrgbcolor
newpath
18.0684 33.6263 moveto
16.8593 22.0474 lineto
stroke
grestore
gsave
1 setlinecap
0.425197 setlinewidth
0.000000 0.800000 1.000000 setrgbcolor
newpath
5.03138 33.9251 moveto
-3.44054 45.4478 lineto
stroke
grestore
gsave
1 setlinecap
0.425197 setlinewidth
0.000000 0.800000 1.000000 setrgbcolor
newpath
5.03138 33.9251 moveto
-4.6496 33.8689 lineto
stroke
grestore
gsave
1 setlinecap
0.425197 setlinewidth
0.000000 0.800000 1.000000 setrgbcolor
newpath
5.03138 33.9251 moveto
-13.1215 45.3917 lineto
stroke
grestore
gsave
1 setlinecap
0.425197 setlinewidth
0.000000 0.800000 1.000000 setrgbcolor
newpath
-4.6496 33.8689 moveto
-14.8889 34.4436 lineto
stroke
grestore
gsave
1 setlinecap
0.425197 setlinewidth
0.000000 0.800000 1.000000 setrgbcolor
newpath
-4.6496 33.8689 moveto
-16.6563 23.4956 lineto
stroke
grestore
gsave
1 setlinecap
0.425197 setlinewidth
0.000000 0.800000 1.000000 setrgbcolor
newpath
-4.6496 33.8689 moveto
-6.41701 22.9209 lineto
stroke
grestore
gsave
1 setlinecap
0.000000 0.000000 0.000000 setrgbcolor
newpath
-2.01069 -2.55949 moveto
3.82231 22.3461 lineto
stroke
grestore
gsave
1 setlinecap
0.000000 0.000000 0.000000 setrgbcolor
newpath
3.82231 22.3461 moveto
-16.6563 23.4956 lineto
stroke
grestore
gsave
1 setlinecap
0.000000 0.000000 0.000000 setrgbcolor
newpath
-16.6563 23.4956 moveto
-2.01069 -2.55949 lineto
stroke
grestore
gsave
1 setlinecap
0.000000 0.000000 0.000000 setrgbcolor
newpath
-2.01069 -2.55949 moveto
26.4355 -4.32182 lineto
stroke
grestore
gsave
1 setlinecap
0.000000 0.000000 0.000000 setrgbcolor
newpath
26.4355 -4.32182 moveto
3.82231 22.3461 lineto
stroke
grestore
gsave
1 setlinecap
0.000000 0.000000 0.000000 setrgbcolor
newpath
3.82231 22.3461 moveto
-2.01069 -2.55949 lineto
stroke
grestore
gsave
1 setlinecap
0.000000 0.000000 0.000000 setrgbcolor
newpath
26.4355 -4.32182 moveto
29.8963 21.7487 lineto
stroke
grestore
gsave
1 setlinecap
0.000000 0.000000 0.000000 setrgbcolor
newpath
29.8963 21.7487 moveto
3.82231 22.3461 lineto
stroke
grestore
gsave
1 setlinecap
0.000000 0.000000 0.000000 setrgbcolor
newpath
3.82231 22.3461 moveto
26.4355 -4.32182 lineto
stroke
grestore
gsave
1 setlinecap
0.000000 0.000000 0.000000 setrgbcolor
newpath
26.4355 -4.32182 moveto
57.7836 -5.86736 lineto
stroke
grestore
gsave
1 setlinecap
0.000000 0.000000 0.000000 setrgbcolor
newpath
57.7836 -5.86736 moveto
29.8963 21.7487 lineto
stroke
grestore
gsave
1 setlinecap
0.000000 0.000000 0.000000 setrgbcolor
newpath
29.8963 21.7487 moveto
26.4355 -4.32182 lineto
stroke
grestore
gsave
1 setlinecap
0.000000 0.000000 0.000000 setrgbcolor
newpath
57.7836 -5.86736 moveto
53.4694 21.9514 lineto
stroke
grestore
gsave
1 setlinecap
0.000000 0.000000 0.000000 setrgbcolor
newpath
53.4694 21.9514 moveto
29.8963 21.7487 lineto
stroke
grestore
gsave
1 setlinecap
0.000000 0.000000 0.000000 setrgbcolor
newpath
29.8963 21.7487 moveto
57.7836 -5.86736 lineto
stroke
grestore
gsave
1 setlinecap
0.000000 0.000000 0.000000 setrgbcolor
newpath
-16.6563 23.4956 moveto
3.82231 22.3461 lineto
stroke
grestore
gsave
1 setlinecap
0.000000 0.000000 0.000000 setrgbcolor
newpath
3.82231 22.3461 moveto
-13.1215 45.3917 lineto
stroke
grestore
gsave
1 setlinecap
0.000000 0.000000 0.000000 setrgbcolor
newpath
-13.1215 45.3917 moveto
-16.6563 23.4956 lineto
stroke
grestore
gsave
1 setlinecap
0.000000 0.000000 0.000000 setrgbcolor
newpath
-13.1215 45.3917 moveto
6.24044 45.504 lineto
stroke
grestore
gsave
1 setlinecap
0.000000 0.000000 0.000000 setrgbcolor
newpath
6.24044 45.504 moveto
3.82231 22.3461 lineto
stroke
grestore
gsave
1 setlinecap
0.000000 0.000000 0.000000 setrgbcolor
newpath
3.82231 22.3461 moveto
-13.1215 45.3917 lineto
stroke
grestore
gsave
1 setlinecap
0.000000 0.000000 0.000000 setrgbcolor
newpath
3.82231 22.3461 moveto
29.8963 21.7487 lineto
stroke
grestore
gsave
1 setlinecap
0.000000 0.000000 0.000000 setrgbcolor
newpath
29.8963 21.7487 moveto
6.24044 45.504 lineto
stroke
grestore
gsave
1 setlinecap
0.000000 0.000000 0.000000 setrgbcolor
newpath
6.24044 45.504 moveto
3.82231 22.3461 lineto
stroke
grestore
gsave
1 setlinecap
0.000000 0.000000 0.000000 setrgbcolor
newpath
6.24044 45.504 moveto
27.6656 43.4105 lineto
stroke
grestore
gsave
1 setlinecap
0.000000 0.000000 0.000000 setrgbcolor
newpath
27.6656 43.4105 moveto
29.8963 21.7487 lineto
stroke
grestore
gsave
1 setlinecap
0.000000 0.000000 0.000000 setrgbcolor
newpath
29.8963 21.7487 moveto
6.24044 45.504 lineto
stroke
grestore
gsave
1 setlinecap
0.000000 0.000000 0.000000 setrgbcolor
newpath
29.8963 21.7487 moveto
53.4694 21.9514 lineto
stroke
grestore
gsave
1 setlinecap
0.000000 0.000000 0.000000 setrgbcolor
newpath
53.4694 21.9514 moveto
27.6656 43.4105 lineto
stroke
grestore
gsave
1 setlinecap
0.000000 0.000000 0.000000 setrgbcolor
newpath
27.6656 43.4105 moveto
29.8963 21.7487 lineto
stroke
grestore
gsave
0.000000 0.000000 0.000000 setrgbcolor
newpath
-1.44376 -2.55949 moveto
-2.01069 -2.55949 0.566929 0.1 359.9 arc
closepath
fill
grestore
gsave
0.000000 0.000000 0.000000 setrgbcolor
newpath
-1.44376 -2.55949 moveto
-2.01069 -2.55949 0.566929 0.1 359.9 arc
closepath
stroke
grestore
gsave
0.000000 0.000000 0.000000 setrgbcolor
newpath
4.38924 22.3461 moveto
3.82231 22.3461 0.566929 0.1 359.9 arc
closepath
fill
grestore
gsave
0.000000 0.000000 0.000000 setrgbcolor
newpath
4.38924 22.3461 moveto
3.82231 22.3461 0.566929 0.1 359.9 arc
closepath
stroke
grestore
gsave
0.000000 0.000000 0.000000 setrgbcolor
newpath
-16.0894 23.4956 moveto
-16.6563 23.4956 0.566929 0.1 359.9 arc
closepath
fill
grestore
gsave
0.000000 0.000000 0.000000 setrgbcolor
newpath
-16.0894 23.4956 moveto
-16.6563 23.4956 0.566929 0.1 359.9 arc
closepath
stroke
grestore
gsave
0.000000 0.000000 0.000000 setrgbcolor
newpath
-1.44376 -2.55949 moveto
-2.01069 -2.55949 0.566929 0.1 359.9 arc
closepath
fill
grestore
gsave
0.000000 0.000000 0.000000 setrgbcolor
newpath
-1.44376 -2.55949 moveto
-2.01069 -2.55949 0.566929 0.1 359.9 arc
closepath
stroke
grestore
gsave
0.000000 0.000000 0.000000 setrgbcolor
newpath
27.0025 -4.32182 moveto
26.4355 -4.32182 0.566929 0.1 359.9 arc
closepath
fill
grestore
gsave
0.000000 0.000000 0.000000 setrgbcolor
newpath
27.0025 -4.32182 moveto
26.4355 -4.32182 0.566929 0.1 359.9 arc
closepath
stroke
grestore
gsave
0.000000 0.000000 0.000000 setrgbcolor
newpath
4.38924 22.3461 moveto
3.82231 22.3461 0.566929 0.1 359.9 arc
closepath
fill
grestore
gsave
0.000000 0.000000 0.000000 setrgbcolor
newpath
4.38924 22.3461 moveto
3.82231 22.3461 0.566929 0.1 359.9 arc
closepath
stroke
grestore
gsave
0.000000 0.000000 0.000000 setrgbcolor
newpath
27.0025 -4.32182 moveto
26.4355 -4.32182 0.566929 0.1 359.9 arc
closepath
fill
grestore
gsave
0.000000 0.000000 0.000000 setrgbcolor
newpath
27.0025 -4.32182 moveto
26.4355 -4.32182 0.566929 0.1 359.9 arc
closepath
stroke
grestore
gsave
0.000000 0.000000 0.000000 setrgbcolor
newpath
30.4633 21.7487 moveto
29.8963 21.7487 0.566929 0.1 359.9 arc
closepath
fill
grestore
gsave
0.000000 0.000000 0.000000 setrgbcolor
newpath
30.4633 21.7487 moveto
29.8963 21.7487 0.566929 0.1 359.9 arc
closepath
stroke
grestore
gsave
0.000000 0.000000 0.000000 setrgbcolor
newpath
4.38924 22.3461 moveto
3.82231 22.3461 0.566929 0.1 359.9 arc
closepath
fill
grestore
gsave
0.000000 0.000000 0.000000 setrgbcolor
newpath
4.38924 22.3461 moveto
3.82231 22.3461 0.566929 0.1 359.9 arc
closepath
stroke
grestore
gsave
0.000000 0.000000 0.000000 setrgbcolor
newpath
27.0025 -4.32182 moveto
26.4355 -4.32182 0.566929 0.1 359.9 arc
closepath
fill
grestore
gsave
0.000000 0.000000 0.000000 setrgbcolor
newpath
27.0025 -4.32182 moveto
26.4355 -4.32182 0.566929 0.1 359.9 arc
closepath
stroke
grestore
gsave
0.000000 0.000000 0.000000 setrgbcolor
newpath
58.3505 -5.86736 moveto
57.7836 -5.86736 0.566929 0.1 359.9 arc
closepath
fill
grestore
gsave
0.000000 0.000000 0.000000 setrgbcolor
newpath
58.3505 -5.86736 moveto
57.7836 -5.86736 0.566929 0.1 359.9 arc
closepath
stroke
grestore
gsave
0.000000 0.000000 0.000000 setrgbcolor
newpath
30.4633 21.7487 moveto
29.8963 21.7487 0.566929 0.1 359.9 arc
closepath
fill
grestore
gsave
0.000000 0.000000 0.000000 setrgbcolor
newpath
30.4633 21.7487 moveto
29.8963 21.7487 0.566929 0.1 359.9 arc
closepath
stroke
grestore
gsave
0.000000 0.000000 0.000000 setrgbcolor
newpath
58.3505 -5.86736 moveto
57.7836 -5.86736 0.566929 0.1 359.9 arc
closepath
fill
grestore
gsave
0.000000 0.000000 0.000000 setrgbcolor
newpath
58.3505 -5.86736 moveto
57.7836 -5.86736 0.566929 0.1 359.9 arc
closepath
stroke
grestore
gsave
0.000000 0.000000 0.000000 setrgbcolor
newpath
54.0363 21.9514 moveto
53.4694 21.9514 0.566929 0.1 359.9 arc
closepath
fill
grestore
gsave
0.000000 0.000000 0.000000 setrgbcolor
newpath
54.0363 21.9514 moveto
53.4694 21.9514 0.566929 0.1 359.9 arc
closepath
stroke
grestore
gsave
0.000000 0.000000 0.000000 setrgbcolor
newpath
30.4633 21.7487 moveto
29.8963 21.7487 0.566929 0.1 359.9 arc
closepath
fill
grestore
gsave
0.000000 0.000000 0.000000 setrgbcolor
newpath
30.4633 21.7487 moveto
29.8963 21.7487 0.566929 0.1 359.9 arc
closepath
stroke
grestore
gsave
0.000000 0.000000 0.000000 setrgbcolor
newpath
-16.0894 23.4956 moveto
-16.6563 23.4956 0.566929 0.1 359.9 arc
closepath
fill
grestore
gsave
0.000000 0.000000 0.000000 setrgbcolor
newpath
-16.0894 23.4956 moveto
-16.6563 23.4956 0.566929 0.1 359.9 arc
closepath
stroke
grestore
gsave
0.000000 0.000000 0.000000 setrgbcolor
newpath
4.38924 22.3461 moveto
3.82231 22.3461 0.566929 0.1 359.9 arc
closepath
fill
grestore
gsave
0.000000 0.000000 0.000000 setrgbcolor
newpath
4.38924 22.3461 moveto
3.82231 22.3461 0.566929 0.1 359.9 arc
closepath
stroke
grestore
gsave
0.000000 0.000000 0.000000 setrgbcolor
newpath
-12.5546 45.3917 moveto
-13.1215 45.3917 0.566929 0.1 359.9 arc
closepath
fill
grestore
gsave
0.000000 0.000000 0.000000 setrgbcolor
newpath
-12.5546 45.3917 moveto
-13.1215 45.3917 0.566929 0.1 359.9 arc
closepath
stroke
grestore
gsave
0.000000 0.000000 0.000000 setrgbcolor
newpath
-12.5546 45.3917 moveto
-13.1215 45.3917 0.566929 0.1 359.9 arc
closepath
fill
grestore
gsave
0.000000 0.000000 0.000000 setrgbcolor
newpath
-12.5546 45.3917 moveto
-13.1215 45.3917 0.566929 0.1 359.9 arc
closepath
stroke
grestore
gsave
0.000000 0.000000 0.000000 setrgbcolor
newpath
6.80737 45.504 moveto
6.24044 45.504 0.566929 0.1 359.9 arc
closepath
fill
grestore
gsave
0.000000 0.000000 0.000000 setrgbcolor
newpath
6.80737 45.504 moveto
6.24044 45.504 0.566929 0.1 359.9 arc
closepath
stroke
grestore
gsave
0.000000 0.000000 0.000000 setrgbcolor
newpath
4.38924 22.3461 moveto
3.82231 22.3461 0.566929 0.1 359.9 arc
closepath
fill
grestore
gsave
0.000000 0.000000 0.000000 setrgbcolor
newpath
4.38924 22.3461 moveto
3.82231 22.3461 0.566929 0.1 359.9 arc
closepath
stroke
grestore
gsave
0.000000 0.000000 0.000000 setrgbcolor
newpath
4.38924 22.3461 moveto
3.82231 22.3461 0.566929 0.1 359.9 arc
closepath
fill
grestore
gsave
0.000000 0.000000 0.000000 setrgbcolor
newpath
4.38924 22.3461 moveto
3.82231 22.3461 0.566929 0.1 359.9 arc
closepath
stroke
grestore
gsave
0.000000 0.000000 0.000000 setrgbcolor
newpath
30.4633 21.7487 moveto
29.8963 21.7487 0.566929 0.1 359.9 arc
closepath
fill
grestore
gsave
0.000000 0.000000 0.000000 setrgbcolor
newpath
30.4633 21.7487 moveto
29.8963 21.7487 0.566929 0.1 359.9 arc
closepath
stroke
grestore
gsave
0.000000 0.000000 0.000000 setrgbcolor
newpath
6.80737 45.504 moveto
6.24044 45.504 0.566929 0.1 359.9 arc
closepath
fill
grestore
gsave
0.000000 0.000000 0.000000 setrgbcolor
newpath
6.80737 45.504 moveto
6.24044 45.504 0.566929 0.1 359.9 arc
closepath
stroke
grestore
gsave
0.000000 0.000000 0.000000 setrgbcolor
newpath
6.80737 45.504 moveto
6.24044 45.504 0.566929 0.1 359.9 arc
closepath
fill
grestore
gsave
0.000000 0.000000 0.000000 setrgbcolor
newpath
6.80737 45.504 moveto
6.24044 45.504 0.566929 0.1 359.9 arc
closepath
stroke
grestore
gsave
0.000000 0.000000 0.000000 setrgbcolor
newpath
28.2325 43.4105 moveto
27.6656 43.4105 0.566929 0.1 359.9 arc
closepath
fill
grestore
gsave
0.000000 0.000000 0.000000 setrgbcolor
newpath
28.2325 43.4105 moveto
27.6656 43.4105 0.566929 0.1 359.9 arc
closepath
stroke
grestore
gsave
0.000000 0.000000 0.000000 setrgbcolor
newpath
30.4633 21.7487 moveto
29.8963 21.7487 0.566929 0.1 359.9 arc
closepath
fill
grestore
gsave
0.000000 0.000000 0.000000 setrgbcolor
newpath
30.4633 21.7487 moveto
29.8963 21.7487 0.566929 0.1 359.9 arc
closepath
stroke
grestore
gsave
0.000000 0.000000 0.000000 setrgbcolor
newpath
30.4633 21.7487 moveto
29.8963 21.7487 0.566929 0.1 359.9 arc
closepath
fill
grestore
gsave
0.000000 0.000000 0.000000 setrgbcolor
newpath
30.4633 21.7487 moveto
29.8963 21.7487 0.566929 0.1 359.9 arc
closepath
stroke
grestore
gsave
0.000000 0.000000 0.000000 setrgbcolor
newpath
54.0363 21.9514 moveto
53.4694 21.9514 0.566929 0.1 359.9 arc
closepath
fill
grestore
gsave
0.000000 0.000000 0.000000 setrgbcolor
newpath
54.0363 21.9514 moveto
53.4694 21.9514 0.566929 0.1 359.9 arc
closepath
stroke
grestore
gsave
0.000000 0.000000 0.000000 setrgbcolor
newpath
28.2325 43.4105 moveto
27.6656 43.4105 0.566929 0.1 359.9 arc
closepath
fill
grestore
gsave
0.000000 0.000000 0.000000 setrgbcolor
newpath
28.2325 43.4105 moveto
27.6656 43.4105 0.566929 0.1 359.9 arc
closepath
stroke
grestore
gsave
0.000000 0.800000 1.000000 setrgbcolor
newpath
2.03967 9.89333 moveto
0.905809 9.89333 1.13386 0.1 359.9 arc
closepath
fill
grestore
gsave
0.000000 0.000000 0.000000 setrgbcolor
newpath
2.03967 9.89333 moveto
0.905809 9.89333 1.13386 0.1 359.9 arc
closepath
stroke
grestore
gsave
0.000000 0.800000 1.000000 setrgbcolor
newpath
-5.28315 22.9209 moveto
-6.41701 22.9209 1.13386 0.1 359.9 arc
closepath
fill
grestore
gsave
0.000000 0.000000 0.000000 setrgbcolor
newpath
-5.28315 22.9209 moveto
-6.41701 22.9209 1.13386 0.1 359.9 arc
closepath
stroke
grestore
gsave
0.000000 0.800000 1.000000 setrgbcolor
newpath
-8.19965 10.468 moveto
-9.33351 10.468 1.13386 0.1 359.9 arc
closepath
fill
grestore
gsave
0.000000 0.000000 0.000000 setrgbcolor
newpath
-8.19965 10.468 moveto
-9.33351 10.468 1.13386 0.1 359.9 arc
closepath
stroke
grestore
gsave
0.000000 0.800000 1.000000 setrgbcolor
newpath
13.3463 -3.44065 moveto
12.2124 -3.44065 1.13386 0.1 359.9 arc
closepath
fill
grestore
gsave
0.000000 0.000000 0.000000 setrgbcolor
newpath
13.3463 -3.44065 moveto
12.2124 -3.44065 1.13386 0.1 359.9 arc
closepath
stroke
grestore
gsave
0.000000 0.800000 1.000000 setrgbcolor
newpath
16.2628 9.01217 moveto
15.1289 9.01217 1.13386 0.1 359.9 arc
closepath
fill
grestore
gsave
0.000000 0.000000 0.000000 setrgbcolor
newpath
16.2628 9.01217 moveto
15.1289 9.01217 1.13386 0.1 359.9 arc
closepath
stroke
grestore
gsave
0.000000 0.800000 1.000000 setrgbcolor
newpath
2.03967 9.89333 moveto
0.905809 9.89333 1.13386 0.1 359.9 arc
closepath
fill
grestore
gsave
0.000000 0.000000 0.000000 setrgbcolor
newpath
2.03967 9.89333 moveto
0.905809 9.89333 1.13386 0.1 359.9 arc
closepath
stroke
grestore
gsave
0.000000 0.800000 1.000000 setrgbcolor
newpath
29.2998 8.71343 moveto
28.1659 8.71343 1.13386 0.1 359.9 arc
closepath
fill
grestore
gsave
0.000000 0.000000 0.000000 setrgbcolor
newpath
29.2998 8.71343 moveto
28.1659 8.71343 1.13386 0.1 359.9 arc
closepath
stroke
grestore
gsave
0.000000 0.800000 1.000000 setrgbcolor
newpath
17.9932 22.0474 moveto
16.8593 22.0474 1.13386 0.1 359.9 arc
closepath
fill
grestore
gsave
0.000000 0.000000 0.000000 setrgbcolor
newpath
17.9932 22.0474 moveto
16.8593 22.0474 1.13386 0.1 359.9 arc
closepath
stroke
grestore
gsave
0.000000 0.800000 1.000000 setrgbcolor
newpath
16.2628 9.01217 moveto
15.1289 9.01217 1.13386 0.1 359.9 arc
closepath
fill
grestore
gsave
0.000000 0.000000 0.000000 setrgbcolor
newpath
16.2628 9.01217 moveto
15.1289 9.01217 1.13386 0.1 359.9 arc
closepath
stroke
grestore
gsave
0.000000 0.800000 1.000000 setrgbcolor
newpath
43.2434 -5.09459 moveto
42.1096 -5.09459 1.13386 0.1 359.9 arc
closepath
fill
grestore
gsave
0.000000 0.000000 0.000000 setrgbcolor
newpath
43.2434 -5.09459 moveto
42.1096 -5.09459 1.13386 0.1 359.9 arc
closepath
stroke
grestore
gsave
0.000000 0.800000 1.000000 setrgbcolor
newpath
44.9738 7.94066 moveto
43.84 7.94066 1.13386 0.1 359.9 arc
closepath
fill
grestore
gsave
0.000000 0.000000 0.000000 setrgbcolor
newpath
44.9738 7.94066 moveto
43.84 7.94066 1.13386 0.1 359.9 arc
closepath
stroke
grestore
gsave
0.000000 0.800000 1.000000 setrgbcolor
newpath
29.2998 8.71343 moveto
28.1659 8.71343 1.13386 0.1 359.9 arc
closepath
fill
grestore
gsave
0.000000 0.000000 0.000000 setrgbcolor
newpath
29.2998 8.71343 moveto
28.1659 8.71343 1.13386 0.1 359.9 arc
closepath
stroke
grestore
gsave
0.000000 0.800000 1.000000 setrgbcolor
newpath
56.7603 8.04201 moveto
55.6265 8.04201 1.13386 0.1 359.9 arc
closepath
fill
grestore
gsave
0.000000 0.000000 0.000000 setrgbcolor
newpath
56.7603 8.04201 moveto
55.6265 8.04201 1.13386 0.1 359.9 arc
closepath
stroke
grestore
gsave
0.000000 0.800000 1.000000 setrgbcolor
newpath
42.8167 21.85 moveto
41.6829 21.85 1.13386 0.1 359.9 arc
closepath
fill
grestore
gsave
0.000000 0.000000 0.000000 setrgbcolor
newpath
42.8167 21.85 moveto
41.6829 21.85 1.13386 0.1 359.9 arc
closepath
stroke
grestore
gsave
0.000000 0.800000 1.000000 setrgbcolor
newpath
44.9738 7.94066 moveto
43.84 7.94066 1.13386 0.1 359.9 arc
closepath
fill
grestore
gsave
0.000000 0.000000 0.000000 setrgbcolor
newpath
44.9738 7.94066 moveto
43.84 7.94066 1.13386 0.1 359.9 arc
closepath
stroke
grestore
gsave
0.000000 0.800000 1.000000 setrgbcolor
newpath
-5.28315 22.9209 moveto
-6.41701 22.9209 1.13386 0.1 359.9 arc
closepath
fill
grestore
gsave
0.000000 0.000000 0.000000 setrgbcolor
newpath
-5.28315 22.9209 moveto
-6.41701 22.9209 1.13386 0.1 359.9 arc
closepath
stroke
grestore
gsave
0.000000 0.800000 1.000000 setrgbcolor
newpath
-3.51574 33.8689 moveto
-4.6496 33.8689 1.13386 0.1 359.9 arc
closepath
fill
grestore
gsave
0.000000 0.000000 0.000000 setrgbcolor
newpath
-3.51574 33.8689 moveto
-4.6496 33.8689 1.13386 0.1 359.9 arc
closepath
stroke
grestore
gsave
0.000000 0.800000 1.000000 setrgbcolor
newpath
-13.7551 34.4436 moveto
-14.8889 34.4436 1.13386 0.1 359.9 arc
closepath
fill
grestore
gsave
0.000000 0.000000 0.000000 setrgbcolor
newpath
-13.7551 34.4436 moveto
-14.8889 34.4436 1.13386 0.1 359.9 arc
closepath
stroke
grestore
gsave
0.000000 0.800000 1.000000 setrgbcolor
newpath
-2.30668 45.4478 moveto
-3.44054 45.4478 1.13386 0.1 359.9 arc
closepath
fill
grestore
gsave
0.000000 0.000000 0.000000 setrgbcolor
newpath
-2.30668 45.4478 moveto
-3.44054 45.4478 1.13386 0.1 359.9 arc
closepath
stroke
grestore
gsave
0.000000 0.800000 1.000000 setrgbcolor
newpath
6.16523 33.9251 moveto
5.03138 33.9251 1.13386 0.1 359.9 arc
closepath
fill
grestore
gsave
0.000000 0.000000 0.000000 setrgbcolor
newpath
6.16523 33.9251 moveto
5.03138 33.9251 1.13386 0.1 359.9 arc
closepath
stroke
grestore
gsave
0.000000 0.800000 1.000000 setrgbcolor
newpath
-3.51574 33.8689 moveto
-4.6496 33.8689 1.13386 0.1 359.9 arc
closepath
fill
grestore
gsave
0.000000 0.000000 0.000000 setrgbcolor
newpath
-3.51574 33.8689 moveto
-4.6496 33.8689 1.13386 0.1 359.9 arc
closepath
stroke
grestore
gsave
0.000000 0.800000 1.000000 setrgbcolor
newpath
17.9932 22.0474 moveto
16.8593 22.0474 1.13386 0.1 359.9 arc
closepath
fill
grestore
gsave
0.000000 0.000000 0.000000 setrgbcolor
newpath
17.9932 22.0474 moveto
16.8593 22.0474 1.13386 0.1 359.9 arc
closepath
stroke
grestore
gsave
0.000000 0.800000 1.000000 setrgbcolor
newpath
19.2022 33.6263 moveto
18.0684 33.6263 1.13386 0.1 359.9 arc
closepath
fill
grestore
gsave
0.000000 0.000000 0.000000 setrgbcolor
newpath
19.2022 33.6263 moveto
18.0684 33.6263 1.13386 0.1 359.9 arc
closepath
stroke
grestore
gsave
0.000000 0.800000 1.000000 setrgbcolor
newpath
6.16523 33.9251 moveto
5.03138 33.9251 1.13386 0.1 359.9 arc
closepath
fill
grestore
gsave
0.000000 0.000000 0.000000 setrgbcolor
newpath
6.16523 33.9251 moveto
5.03138 33.9251 1.13386 0.1 359.9 arc
closepath
stroke
grestore
gsave
0.000000 0.800000 1.000000 setrgbcolor
newpath
18.0869 44.4572 moveto
16.953 44.4572 1.13386 0.1 359.9 arc
closepath
fill
grestore
gsave
0.000000 0.000000 0.000000 setrgbcolor
newpath
18.0869 44.4572 moveto
16.953 44.4572 1.13386 0.1 359.9 arc
closepath
stroke
grestore
gsave
0.000000 0.800000 1.000000 setrgbcolor
newpath
29.9148 32.5796 moveto
28.7809 32.5796 1.13386 0.1 359.9 arc
closepath
fill
grestore
gsave
0.000000 0.000000 0.000000 setrgbcolor
newpath
29.9148 32.5796 moveto
28.7809 32.5796 1.13386 0.1 359.9 arc
closepath
stroke
grestore
gsave
0.000000 0.800000 1.000000 setrgbcolor
newpath
19.2022 33.6263 moveto
18.0684 33.6263 1.13386 0.1 359.9 arc
closepath
fill
grestore
gsave
0.000000 0.000000 0.000000 setrgbcolor
newpath
19.2022 33.6263 moveto
18.0684 33.6263 1.13386 0.1 359.9 arc
closepath
stroke
grestore
gsave
0.000000 0.800000 1.000000 setrgbcolor
newpath
42.8167 21.85 moveto
41.6829 21.85 1.13386 0.1 359.9 arc
closepath
fill
grestore
gsave
0.000000 0.000000 0.000000 setrgbcolor
newpath
42.8167 21.85 moveto
41.6829 21.85 1.13386 0.1 359.9 arc
closepath
stroke
grestore
gsave
0.000000 0.800000 1.000000 setrgbcolor
newpath
41.7013 32.6809 moveto
40.5675 32.6809 1.13386 0.1 359.9 arc
closepath
fill
grestore
gsave
0.000000 0.000000 0.000000 setrgbcolor
newpath
41.7013 32.6809 moveto
40.5675 32.6809 1.13386 0.1 359.9 arc
closepath
stroke
grestore
gsave
0.000000 0.800000 1.000000 setrgbcolor
newpath
29.9148 32.5796 moveto
28.7809 32.5796 1.13386 0.1 359.9 arc
closepath
fill
grestore
gsave
0.000000 0.000000 0.000000 setrgbcolor
newpath
29.9148 32.5796 moveto
28.7809 32.5796 1.13386 0.1 359.9 arc
closepath
stroke
grestore
showpage
%%Trailer
%%EOF
