%!PS-Adobe-3.0 EPSF-3.0
%%BoundingBox: -19 -8 60 48
%%HiResBoundingBox: -18.2233 -7.43429 59.3505 47.0709
%%Creator: PyX 0.15
%%CreationDate: Tue Jan 12 20:28:17 2021
%%EndComments
%%BeginProlog
%%EndProlog
0.566929 setlinewidth
gsave
1 setlinecap
0.000000 0.000000 0.000000 setrgbcolor
newpath
-2.01069 -2.55949 moveto
3.82231 22.3461 lineto
stroke
grestore
gsave
1 setlinecap
0.000000 0.000000 0.000000 setrgbcolor
newpath
3.82231 22.3461 moveto
-16.6563 23.4956 lineto
stroke
grestore
gsave
1 setlinecap
0.000000 0.000000 0.000000 setrgbcolor
newpath
-16.6563 23.4956 moveto
-2.01069 -2.55949 lineto
stroke
grestore
gsave
1 setlinecap
0.000000 0.000000 0.000000 setrgbcolor
newpath
-2.01069 -2.55949 moveto
26.4355 -4.32182 lineto
stroke
grestore
gsave
1 setlinecap
0.000000 0.000000 0.000000 setrgbcolor
newpath
26.4355 -4.32182 moveto
3.82231 22.3461 lineto
stroke
grestore
gsave
1 setlinecap
0.000000 0.000000 0.000000 setrgbcolor
newpath
3.82231 22.3461 moveto
-2.01069 -2.55949 lineto
stroke
grestore
gsave
1 setlinecap
0.000000 0.000000 0.000000 setrgbcolor
newpath
26.4355 -4.32182 moveto
29.8963 21.7487 lineto
stroke
grestore
gsave
1 setlinecap
0.000000 0.000000 0.000000 setrgbcolor
newpath
29.8963 21.7487 moveto
3.82231 22.3461 lineto
stroke
grestore
gsave
1 setlinecap
0.000000 0.000000 0.000000 setrgbcolor
newpath
3.82231 22.3461 moveto
26.4355 -4.32182 lineto
stroke
grestore
gsave
1 setlinecap
0.000000 0.000000 0.000000 setrgbcolor
newpath
26.4355 -4.32182 moveto
57.7836 -5.86736 lineto
stroke
grestore
gsave
1 setlinecap
0.000000 0.000000 0.000000 setrgbcolor
newpath
57.7836 -5.86736 moveto
29.8963 21.7487 lineto
stroke
grestore
gsave
1 setlinecap
0.000000 0.000000 0.000000 setrgbcolor
newpath
29.8963 21.7487 moveto
26.4355 -4.32182 lineto
stroke
grestore
gsave
1 setlinecap
0.000000 0.000000 0.000000 setrgbcolor
newpath
57.7836 -5.86736 moveto
53.4694 21.9514 lineto
stroke
grestore
gsave
1 setlinecap
0.000000 0.000000 0.000000 setrgbcolor
newpath
53.4694 21.9514 moveto
29.8963 21.7487 lineto
stroke
grestore
gsave
1 setlinecap
0.000000 0.000000 0.000000 setrgbcolor
newpath
29.8963 21.7487 moveto
57.7836 -5.86736 lineto
stroke
grestore
gsave
1 setlinecap
0.000000 0.000000 0.000000 setrgbcolor
newpath
-16.6563 23.4956 moveto
3.82231 22.3461 lineto
stroke
grestore
gsave
1 setlinecap
0.000000 0.000000 0.000000 setrgbcolor
newpath
3.82231 22.3461 moveto
-13.1215 45.3917 lineto
stroke
grestore
gsave
1 setlinecap
0.000000 0.000000 0.000000 setrgbcolor
newpath
-13.1215 45.3917 moveto
-16.6563 23.4956 lineto
stroke
grestore
gsave
1 setlinecap
0.000000 0.000000 0.000000 setrgbcolor
newpath
-13.1215 45.3917 moveto
6.24044 45.504 lineto
stroke
grestore
gsave
1 setlinecap
0.000000 0.000000 0.000000 setrgbcolor
newpath
6.24044 45.504 moveto
3.82231 22.3461 lineto
stroke
grestore
gsave
1 setlinecap
0.000000 0.000000 0.000000 setrgbcolor
newpath
3.82231 22.3461 moveto
-13.1215 45.3917 lineto
stroke
grestore
gsave
1 setlinecap
0.000000 0.000000 0.000000 setrgbcolor
newpath
3.82231 22.3461 moveto
29.8963 21.7487 lineto
stroke
grestore
gsave
1 setlinecap
0.000000 0.000000 0.000000 setrgbcolor
newpath
29.8963 21.7487 moveto
6.24044 45.504 lineto
stroke
grestore
gsave
1 setlinecap
0.000000 0.000000 0.000000 setrgbcolor
newpath
6.24044 45.504 moveto
3.82231 22.3461 lineto
stroke
grestore
gsave
1 setlinecap
0.000000 0.000000 0.000000 setrgbcolor
newpath
6.24044 45.504 moveto
27.6656 43.4105 lineto
stroke
grestore
gsave
1 setlinecap
0.000000 0.000000 0.000000 setrgbcolor
newpath
27.6656 43.4105 moveto
29.8963 21.7487 lineto
stroke
grestore
gsave
1 setlinecap
0.000000 0.000000 0.000000 setrgbcolor
newpath
29.8963 21.7487 moveto
6.24044 45.504 lineto
stroke
grestore
gsave
1 setlinecap
0.000000 0.000000 0.000000 setrgbcolor
newpath
29.8963 21.7487 moveto
53.4694 21.9514 lineto
stroke
grestore
gsave
1 setlinecap
0.000000 0.000000 0.000000 setrgbcolor
newpath
53.4694 21.9514 moveto
27.6656 43.4105 lineto
stroke
grestore
gsave
1 setlinecap
0.000000 0.000000 0.000000 setrgbcolor
newpath
27.6656 43.4105 moveto
29.8963 21.7487 lineto
stroke
grestore
gsave
0.000000 0.000000 0.000000 setrgbcolor
newpath
-1.44376 -2.55949 moveto
-2.01069 -2.55949 0.566929 0.1 359.9 arc
closepath
fill
grestore
gsave
0.000000 0.000000 0.000000 setrgbcolor
newpath
-1.44376 -2.55949 moveto
-2.01069 -2.55949 0.566929 0.1 359.9 arc
closepath
stroke
grestore
gsave
0.000000 0.000000 0.000000 setrgbcolor
newpath
4.38924 22.3461 moveto
3.82231 22.3461 0.566929 0.1 359.9 arc
closepath
fill
grestore
gsave
0.000000 0.000000 0.000000 setrgbcolor
newpath
4.38924 22.3461 moveto
3.82231 22.3461 0.566929 0.1 359.9 arc
closepath
stroke
grestore
gsave
0.000000 0.000000 0.000000 setrgbcolor
newpath
-16.0894 23.4956 moveto
-16.6563 23.4956 0.566929 0.1 359.9 arc
closepath
fill
grestore
gsave
0.000000 0.000000 0.000000 setrgbcolor
newpath
-16.0894 23.4956 moveto
-16.6563 23.4956 0.566929 0.1 359.9 arc
closepath
stroke
grestore
gsave
0.000000 0.000000 0.000000 setrgbcolor
newpath
-1.44376 -2.55949 moveto
-2.01069 -2.55949 0.566929 0.1 359.9 arc
closepath
fill
grestore
gsave
0.000000 0.000000 0.000000 setrgbcolor
newpath
-1.44376 -2.55949 moveto
-2.01069 -2.55949 0.566929 0.1 359.9 arc
closepath
stroke
grestore
gsave
0.000000 0.000000 0.000000 setrgbcolor
newpath
27.0025 -4.32182 moveto
26.4355 -4.32182 0.566929 0.1 359.9 arc
closepath
fill
grestore
gsave
0.000000 0.000000 0.000000 setrgbcolor
newpath
27.0025 -4.32182 moveto
26.4355 -4.32182 0.566929 0.1 359.9 arc
closepath
stroke
grestore
gsave
0.000000 0.000000 0.000000 setrgbcolor
newpath
4.38924 22.3461 moveto
3.82231 22.3461 0.566929 0.1 359.9 arc
closepath
fill
grestore
gsave
0.000000 0.000000 0.000000 setrgbcolor
newpath
4.38924 22.3461 moveto
3.82231 22.3461 0.566929 0.1 359.9 arc
closepath
stroke
grestore
gsave
0.000000 0.000000 0.000000 setrgbcolor
newpath
27.0025 -4.32182 moveto
26.4355 -4.32182 0.566929 0.1 359.9 arc
closepath
fill
grestore
gsave
0.000000 0.000000 0.000000 setrgbcolor
newpath
27.0025 -4.32182 moveto
26.4355 -4.32182 0.566929 0.1 359.9 arc
closepath
stroke
grestore
gsave
0.000000 0.000000 0.000000 setrgbcolor
newpath
30.4633 21.7487 moveto
29.8963 21.7487 0.566929 0.1 359.9 arc
closepath
fill
grestore
gsave
0.000000 0.000000 0.000000 setrgbcolor
newpath
30.4633 21.7487 moveto
29.8963 21.7487 0.566929 0.1 359.9 arc
closepath
stroke
grestore
gsave
0.000000 0.000000 0.000000 setrgbcolor
newpath
4.38924 22.3461 moveto
3.82231 22.3461 0.566929 0.1 359.9 arc
closepath
fill
grestore
gsave
0.000000 0.000000 0.000000 setrgbcolor
newpath
4.38924 22.3461 moveto
3.82231 22.3461 0.566929 0.1 359.9 arc
closepath
stroke
grestore
gsave
0.000000 0.000000 0.000000 setrgbcolor
newpath
27.0025 -4.32182 moveto
26.4355 -4.32182 0.566929 0.1 359.9 arc
closepath
fill
grestore
gsave
0.000000 0.000000 0.000000 setrgbcolor
newpath
27.0025 -4.32182 moveto
26.4355 -4.32182 0.566929 0.1 359.9 arc
closepath
stroke
grestore
gsave
0.000000 0.000000 0.000000 setrgbcolor
newpath
58.3505 -5.86736 moveto
57.7836 -5.86736 0.566929 0.1 359.9 arc
closepath
fill
grestore
gsave
0.000000 0.000000 0.000000 setrgbcolor
newpath
58.3505 -5.86736 moveto
57.7836 -5.86736 0.566929 0.1 359.9 arc
closepath
stroke
grestore
gsave
0.000000 0.000000 0.000000 setrgbcolor
newpath
30.4633 21.7487 moveto
29.8963 21.7487 0.566929 0.1 359.9 arc
closepath
fill
grestore
gsave
0.000000 0.000000 0.000000 setrgbcolor
newpath
30.4633 21.7487 moveto
29.8963 21.7487 0.566929 0.1 359.9 arc
closepath
stroke
grestore
gsave
0.000000 0.000000 0.000000 setrgbcolor
newpath
58.3505 -5.86736 moveto
57.7836 -5.86736 0.566929 0.1 359.9 arc
closepath
fill
grestore
gsave
0.000000 0.000000 0.000000 setrgbcolor
newpath
58.3505 -5.86736 moveto
57.7836 -5.86736 0.566929 0.1 359.9 arc
closepath
stroke
grestore
gsave
0.000000 0.000000 0.000000 setrgbcolor
newpath
54.0363 21.9514 moveto
53.4694 21.9514 0.566929 0.1 359.9 arc
closepath
fill
grestore
gsave
0.000000 0.000000 0.000000 setrgbcolor
newpath
54.0363 21.9514 moveto
53.4694 21.9514 0.566929 0.1 359.9 arc
closepath
stroke
grestore
gsave
0.000000 0.000000 0.000000 setrgbcolor
newpath
30.4633 21.7487 moveto
29.8963 21.7487 0.566929 0.1 359.9 arc
closepath
fill
grestore
gsave
0.000000 0.000000 0.000000 setrgbcolor
newpath
30.4633 21.7487 moveto
29.8963 21.7487 0.566929 0.1 359.9 arc
closepath
stroke
grestore
gsave
0.000000 0.000000 0.000000 setrgbcolor
newpath
-16.0894 23.4956 moveto
-16.6563 23.4956 0.566929 0.1 359.9 arc
closepath
fill
grestore
gsave
0.000000 0.000000 0.000000 setrgbcolor
newpath
-16.0894 23.4956 moveto
-16.6563 23.4956 0.566929 0.1 359.9 arc
closepath
stroke
grestore
gsave
0.000000 0.000000 0.000000 setrgbcolor
newpath
4.38924 22.3461 moveto
3.82231 22.3461 0.566929 0.1 359.9 arc
closepath
fill
grestore
gsave
0.000000 0.000000 0.000000 setrgbcolor
newpath
4.38924 22.3461 moveto
3.82231 22.3461 0.566929 0.1 359.9 arc
closepath
stroke
grestore
gsave
0.000000 0.000000 0.000000 setrgbcolor
newpath
-12.5546 45.3917 moveto
-13.1215 45.3917 0.566929 0.1 359.9 arc
closepath
fill
grestore
gsave
0.000000 0.000000 0.000000 setrgbcolor
newpath
-12.5546 45.3917 moveto
-13.1215 45.3917 0.566929 0.1 359.9 arc
closepath
stroke
grestore
gsave
0.000000 0.000000 0.000000 setrgbcolor
newpath
-12.5546 45.3917 moveto
-13.1215 45.3917 0.566929 0.1 359.9 arc
closepath
fill
grestore
gsave
0.000000 0.000000 0.000000 setrgbcolor
newpath
-12.5546 45.3917 moveto
-13.1215 45.3917 0.566929 0.1 359.9 arc
closepath
stroke
grestore
gsave
0.000000 0.000000 0.000000 setrgbcolor
newpath
6.80737 45.504 moveto
6.24044 45.504 0.566929 0.1 359.9 arc
closepath
fill
grestore
gsave
0.000000 0.000000 0.000000 setrgbcolor
newpath
6.80737 45.504 moveto
6.24044 45.504 0.566929 0.1 359.9 arc
closepath
stroke
grestore
gsave
0.000000 0.000000 0.000000 setrgbcolor
newpath
4.38924 22.3461 moveto
3.82231 22.3461 0.566929 0.1 359.9 arc
closepath
fill
grestore
gsave
0.000000 0.000000 0.000000 setrgbcolor
newpath
4.38924 22.3461 moveto
3.82231 22.3461 0.566929 0.1 359.9 arc
closepath
stroke
grestore
gsave
0.000000 0.000000 0.000000 setrgbcolor
newpath
4.38924 22.3461 moveto
3.82231 22.3461 0.566929 0.1 359.9 arc
closepath
fill
grestore
gsave
0.000000 0.000000 0.000000 setrgbcolor
newpath
4.38924 22.3461 moveto
3.82231 22.3461 0.566929 0.1 359.9 arc
closepath
stroke
grestore
gsave
0.000000 0.000000 0.000000 setrgbcolor
newpath
30.4633 21.7487 moveto
29.8963 21.7487 0.566929 0.1 359.9 arc
closepath
fill
grestore
gsave
0.000000 0.000000 0.000000 setrgbcolor
newpath
30.4633 21.7487 moveto
29.8963 21.7487 0.566929 0.1 359.9 arc
closepath
stroke
grestore
gsave
0.000000 0.000000 0.000000 setrgbcolor
newpath
6.80737 45.504 moveto
6.24044 45.504 0.566929 0.1 359.9 arc
closepath
fill
grestore
gsave
0.000000 0.000000 0.000000 setrgbcolor
newpath
6.80737 45.504 moveto
6.24044 45.504 0.566929 0.1 359.9 arc
closepath
stroke
grestore
gsave
0.000000 0.000000 0.000000 setrgbcolor
newpath
6.80737 45.504 moveto
6.24044 45.504 0.566929 0.1 359.9 arc
closepath
fill
grestore
gsave
0.000000 0.000000 0.000000 setrgbcolor
newpath
6.80737 45.504 moveto
6.24044 45.504 0.566929 0.1 359.9 arc
closepath
stroke
grestore
gsave
0.000000 0.000000 0.000000 setrgbcolor
newpath
28.2325 43.4105 moveto
27.6656 43.4105 0.566929 0.1 359.9 arc
closepath
fill
grestore
gsave
0.000000 0.000000 0.000000 setrgbcolor
newpath
28.2325 43.4105 moveto
27.6656 43.4105 0.566929 0.1 359.9 arc
closepath
stroke
grestore
gsave
0.000000 0.000000 0.000000 setrgbcolor
newpath
30.4633 21.7487 moveto
29.8963 21.7487 0.566929 0.1 359.9 arc
closepath
fill
grestore
gsave
0.000000 0.000000 0.000000 setrgbcolor
newpath
30.4633 21.7487 moveto
29.8963 21.7487 0.566929 0.1 359.9 arc
closepath
stroke
grestore
gsave
0.000000 0.000000 0.000000 setrgbcolor
newpath
30.4633 21.7487 moveto
29.8963 21.7487 0.566929 0.1 359.9 arc
closepath
fill
grestore
gsave
0.000000 0.000000 0.000000 setrgbcolor
newpath
30.4633 21.7487 moveto
29.8963 21.7487 0.566929 0.1 359.9 arc
closepath
stroke
grestore
gsave
0.000000 0.000000 0.000000 setrgbcolor
newpath
54.0363 21.9514 moveto
53.4694 21.9514 0.566929 0.1 359.9 arc
closepath
fill
grestore
gsave
0.000000 0.000000 0.000000 setrgbcolor
newpath
54.0363 21.9514 moveto
53.4694 21.9514 0.566929 0.1 359.9 arc
closepath
stroke
grestore
gsave
0.000000 0.000000 0.000000 setrgbcolor
newpath
28.2325 43.4105 moveto
27.6656 43.4105 0.566929 0.1 359.9 arc
closepath
fill
grestore
gsave
0.000000 0.000000 0.000000 setrgbcolor
newpath
28.2325 43.4105 moveto
27.6656 43.4105 0.566929 0.1 359.9 arc
closepath
stroke
grestore
showpage
%%Trailer
%%EOF
